[
  {
    "airplaneName": "Boeing 747",
    "departureFromLocation": "TPHCM",
    "departureToLocation": "Hà Nội",
    "departureStartTime": "06/12/2021 9h00",
    "departureEndTime": "06/12/2021 12h00",
    "arrivalFromLocation": "Hà Nội",
    "arrivalToLocation": "TPHCM",
    "arrivalStartTime": "08/12/2021 15h00",
    "arrivalEndTime": "08/12/2021 19h00",
    "totalSeat": "48",
    "availableSeat": "48",
    "ecoClass": "250000",
    "businessClass": "400000",
    "firstClass": "800000",
    "type": "Khứ hồi",
    "status": "Còn vé"
  },
  {
    "airplaneName": "Boeing 747",
    "departureFromLocation": "Khánh Hòa  ",
    "departureToLocation": "Hà Nội",
    "departureStartTime": "06/12/2021 10h00",
    "departureEndTime": "06/12/2021 11h00",
    "arrivalFromLocation": "Hà Nội",
    "arrivalToLocation": "TPHCM",
    "arrivalStartTime": "08/12/2021 10h00",
    "arrivalEndTime": "08/12/2021 11h00",
    "totalSeat": "48",
    "availableSeat": "48",
    "ecoClass": "200000",
    "businessClass": "300000",
    "firstClass": "500000",
    "type": "Khứ hồi",
    "status": "Còn vé"
  },
  {
    "airplaneName": "Boeing 747",
    "departureFromLocation": "TPHCM",
    "departureToLocation": "Khánh Hòa",
    "departureStartTime": "06/12/2021 15h00",
    "departureEndTime": "06/12/2021 17h00",
    "arrivalFromLocation": "Hà Nội",
    "arrivalToLocation": "TPHCM",
    "arrivalStartTime": "08/12/2021 12h00",
    "arrivalEndTime": "08/12/2021 14h00",
    "totalSeat": "48",
    "availableSeat": "48",
    "ecoClass": "200000",
    "businessClass": "400000",
    "firstClass": "600000",
    "type": "Khứ hồi",
    "status": "Còn vé"
  }
]
